{
  "compress": {
    "module": true,
    "passes": 3,
    "pure_funcs": [
      "Date.parse",
      "Date.UTC",
      "escape",
      "Math.abs",
      "Math.acos",
      "Math.acosh",
      "Math.asin",
      "Math.asinh",
      "Math.atan",
      "Math.atan2",
      "Math.atanh",
      "Math.cbrt",
      "Math.ceil",
      "Math.clz32",
      "Math.cos",
      "Math.cosh",
      "Math.exp",
      "Math.expm1",
      "Math.floor",
      "Math.fround",
      "Math.hypot",
      "Math.imul",
      "Math.log",
      "Math.log10",
      "Math.log1p",
      "Math.log2",
      "Math.max",
      "Math.min",
      "Math.pow",
      "Math.round",
      "Math.sign",
      "Math.sin",
      "Math.sinh",
      "Math.sqrt",
      "Math.tan",
      "Math.tanh",
      "Math.trunc",
      "parseFloat",
      "parseInt",
      "unescape"
    ],
    "unsafe_math": true,
    "unsafe_proto": true,
    "unsafe_regexp": true,
    "unsafe_undefined": true
  },
  "mangle": true,
  "output": {
    "quote_style": 1,
    "semicolons": false
  },
  "toplevel": true,
  "warnings": true
}
